…
``` r
weather_df %>% 
  bootstrap(n = 5000, id = "strap_number") %>% 
  mutate(
    models = map(.x = strap, ~lm(tmax ~ tmin, data = .x)),
    results = map(models, broom::tidy)
  ) %>% 
  dplyr::select(strap_number, results) %>% 
  unnest(results)
```

    ## # A tibble: 10,000 x 6
    ##    strap_number term        estimate std.error statistic   p.value
    ##    <chr>        <chr>          <dbl>     <dbl>     <dbl>     <dbl>
    ##  1 0001         (Intercept)     7.51    0.224       33.5 4.73e-113
    ##  2 0001         tmin            1.01    0.0161      62.8 4.58e-197
    ##  3 0002         (Intercept)     7.72    0.233       33.2 5.85e-112
    ##  4 0002         tmin            1.01    0.0178      56.8 1.18e-182
    ##  5 0003         (Intercept)     7.06    0.227       31.2 1.07e-104
    ##  6 0003         tmin            1.04    0.0170      61.3 1.68e-193
    ##  7 0004         (Intercept)     7.65    0.225       34.0 6.40e-115
    ##  8 0004         tmin            1.01    0.0168      60.3 2.53e-191
    ##  9 0005         (Intercept)     7.08    0.225       31.4 1.51e-105
    ## 10 0005         tmin            1.03    0.0172      60.0 1.28e-190
    ## # ... with 9,990 more rows
